{
    "personal": {
      "name": "Alejandro Cepeda",
      "jobtitle": "Senior Developer",
      "location": {
        "city": "Villa Alemana", 
        "country": "Chile"},
      "picture": "img/portrait.",
      "bio": ""   
    },
    "exp": [
      { "charge": "Java Developer WebSphere/Web Experience Factory @ Konexa",
        "place": "Konexa",
        "link":  "https://www.konexa.cl/",
        "start": "08/01/2018", 
        "end": "24/02/2020", 
        "desc": "Encargado de desarrollar funcionalidades de aplicaciones Web con Java y Web Experience Factory de los distintos proyectos de IBM"
      },    
      { "charge": "PHP/Java/Codeigniter/Sql Server Developer @ Pasalc",
        "place": "Pasalc",
        "link":  "http://pasalc.cl/",
        "start": "31/03/2018", 
        "end": "28/05/2018", 
        "desc": "Encargado de mejorar sistema ERP empresa Tecnored. Esta mejora fue desarrollada en lenguaje PHP utilizando framework Codeigniter, demás se desarrolló tarea programada para analizar respuestas de correos electrónicos enviados por usuarios"
      },
      { "charge": "PHP/Java/Codeigniter/Sql Server/Laravel/Oracle/HTML/CSS/JAVASCRIPT/JAVA JEE Developer @RG2",
        "place": "RG2",
        "link":  "http://rg2.cl/",
        "start": "30/02/2014", 
        "end": "28/04/2018",
        "desc": "Soporte y desarrollos sistemas de información empresa Chilquinta y sus holding de Empresas."
      },
      { "charge": "PHP/MYSQL/HTML/CSS/JAVASCRIPT Free lance Developer @ GehoWeb",
        "place": "GehoWeb",
        "link":  "http://www.nieblagames.com/",
        "start": "30/04/2014", 
        "end": "04/01/2015", 
        "desc": "Desarrollos sistemas Web GehoWeb."
      },
      { "charge": "PHP/MYSQL/HTML/CSS/JAVASCRIPT Free lance Developer @ Optima-ti",
        "place": "Optima-ti",
        "link":  "https://optima-ti.com/",
        "start": "30/02/2013", 
        "end": "31/12/2014", 
        "desc": "Desarrollos sistemas Web Optima-ti."
      },
      { "charge": "PHP/MYSQL/HTML/CSS/JAVASCRIPT Práctica profecional Developer @ Sonda Ltda.",
        "place": "Sonda Ltda",
        "link":  "https://www.sonda.com/",
        "start": "14/01/2013", 
        "end": "31/16/2013", 
        "desc": "Práctica profecional."
      }
    ],
    "edu": [
      { "title": "Curso Angular Udemy",
        "start": "03/2019", 
        "end": "03/2019", 
        "desc": "Curso Angular: De cero a experto creando aplicaciones (Angular 8+) para proyectos personales"
      },
	  { "title": "Ingeniería Informática",
        "start": "03/2009", 
        "end": "09/2013", 
        "desc": "Universidad Tecnológica de Chile (INACAP), Valparaíso"
      },
	  { "title": "Curso Cisco IT Essentials: Pc Hardware y Soware",
        "start": "03/2009", 
        "end": "06/2009", 
        "desc": "Universidad Tecnológica de Chile (INACAP), Valparaíso."
      },
	  { "title": "Curso CCNA 2 protocolos de enrutamiento",
        "start": "03/2019", 
        "end": "03/2019", 
        "desc": "Universidad Tecnológica de Chile (INACAP), Valparaíso."
      }
    ],
    "details": {
      "birthday": "05/06/1989",
      "adress": "Los Yuyos 1587, Villa Alemana, Valparaíso",    
      "adress2": "",
      "phone": "+569 96914878",
      "email": "acepda425@gmail.com",
	  "licencia": "Clase B"
    },
    "idiomas": {
      "Espanol": "Español Nativo", 
      "Ingles": "Ingles Dominio intermedio, oral y escrito"
    },
    "certifications": [
      {"image": "img/ibm-agile-explorer.png", 
        "title": "IBM Agile Explorer",
        "issuedTo":"Issued to Sergio Ignacio Ormeno Vargas",
        "issuedBy":"Issued by IBM",
        "link":"https://www.youracclaim.com/badges/0f51ea89-e6c3-447f-ba54-2a28ebd69e04/linked_in_profile"} 
    ],
    "projects": [
    {"nombre": "Desarrollador full stack", 
      "descripcion":"Célula ágil proyecto transformación banca digital Banco herramienta desarrollo Web Experience Factory IBM servidor Web Websphere (WAS)", 
      "repo":"",
      "reponame":"",
      "tecnologias":[
        {"name":"Azure"},
        {"name":"Azure"},
        {"name":"C-Sharp"},
        {"name":"Git"},
        {"name":"NuGet"},
        {"name":"API"},
        {"name":"UnitTesting"},
        {"name":"RazorPages"},
        {"name":"IIS"},
        {"name":"PostMan"},
        {"name":"Boostrap"},
        {"name":"DataModeling"},
        {"name":"Localization"},
        {"name":"SQLServer"},
        {"name":"VisualStudio"},
        {"name":"JQuery"},
        {"name":"AjaX"},
        {"name":"EntityFramework"}
        ]},
      {"nombre": "Mejoramiento sistema ERP empresa Tecnored", 
      "descripcion":"Esta mejora fue desarrollada en lenguaje PHP utilizando framework Codeigniter, además se desarrolló tarea programada para analizar respuestas de correos electrónicos respondidos por usuarios. Este desarrollo fue programado en lenguaje JAVA.", 
      "repo":"https://github.com/sierz/Serious-Game-Elderly-Care",
      "reponame":"Github",
      "tecnologias":[
        {"name":"Unity5"},
        {"name":"C-Sharp"},
        {"name":"Git"},
        {"name":"Animation"},
        {"name":"Modeling"},
        {"name":"Artificial-intelligence"},
        {"name":"Visual-Studio-2015"}
        ]},
      {"nombre": "Soporte y desarrollos sistemas de información empresa Chilquinta y su holding de Empresas", 
      "descripcion":"Dentro de mis labores desarrollé gran variedad de sistemas a medida.", 
      "repo":"https://banco.itau.cl",
      "reponame":"Banco Itaú",
      "tecnologias":[
       {"name":"JavaEE"},
       {"name":"WebSphere"},
       {"name":"JSP"},
       {"name":"SAFe"},
       {"name":"HTML5"},
       {"name":"CSS3"},
       {"name":"Javascript"},
       {"name":"JQuery"},
       {"name":"SCRUM"},
       {"name":"XPath"},
       {"name":"XQuery"},
       {"name":"SQL"},
       {"name":"GIT"},
       {"name":"XSL"},
       {"name":"XML"},
       {"name":"Dojo"},
       {"name":"IBM-Integration-Bus"},
       {"name":"Rational-Team-Contert"},
       {"name":"Web-Experience-Factory"},
       {"name":"IBM-WCM"},
       {"name":"WebServices"}
      ]},
      {"nombre": "Célula Ágil Prevención de Fraudes y Seguridad - Banco Itaú", 
        "descripcion":"Célula ágil encargada de la seguirdad y prevención de fraudes del Banco Itaú, durante este proyecto fui desarrollador Senior y Lead Programmer, encargado dar soporte, desarrollar funcionalidades y analizar los requerimientos a implementar, para el area de prevención de fraudes y seguridad del Banco Itaú.", 
        "repo":"https://banco.itau.cl",
        "reponame":"Banco Itaú",
        "tecnologias":[
         {"name":"JavaEE"},
         {"name":"WebSphere"},
         {"name":"JSP"},
         {"name":"HTML5"},
         {"name":"CSS3"},
         {"name":"Javascript"},
         {"name":"JQuery"},
         {"name":"SCRUM"},
         {"name":"XPath"},
         {"name":"XQuery"},
         {"name":"SQL"},
         {"name":"GIT"},
         {"name":"XSL"},
         {"name":"XML"},
         {"name":"Dojo"},
         {"name":"IBM-Integration-Bus"},
         {"name":"Rational-Team-Contert"},
         {"name":"Web-Experience-Factory"},
         {"name":"IBM-WCM"},
         {"name":"WebServices"}
        ]},
      {"nombre": "Célula Ágil Estructurante Web PF - Banco Itaú", 
        "descripcion":"Célula ágil encargada de la reestructuración completa del sitio web público y privado de personas físicas del Banco Itaú,  durante este proyecto de 26 Sprints, fuí desarrollador Senior, encargado de analizar requerimientos, dar soporte, brindar mentoría y desarrollar funcionalidades, para así mejorar todas las aplicaciones en base a requerimientos del cliente, algunos de mis desarrollos fueron el nuevo flujo de transferencias a terceros, cartolas históricas y de saldos de productos, nuevo menú de navegación, nuevo resumen de tarjetas y muchas mejoras más.", 
        "repo":"https://banco.itau.cl",
        "reponame":"Banco Itaú",
        "tecnologias":[
         {"name":"JavaEE"},
         {"name":"WebSphere"},
         {"name":"JSP"},
         {"name":"HTML5"},
         {"name":"CSS3"},
         {"name":"Javascript"},
         {"name":"JQuery"},
         {"name":"SCRUM"},
         {"name":"XPath"},
         {"name":"XQuery"},
         {"name":"SQL"},
         {"name":"GIT"},
         {"name":"XSL"},
         {"name":"XML"},
         {"name":"Dojo"},
         {"name":"IBM-Integration-Bus"},
         {"name":"Rational-Team-Contert"},
         {"name":"Web-Experience-Factory"},
         {"name":"IBM-WCM"},
         {"name":"WebServices"}
        ]},
		{"nombre": "Servicios Web consulta y registro de pago - Chilquinta", 
        "descripcion":"Desarrollo e integración servicios consulta y pago empresa Chilquinta, los cuales se comunican con los recaudadores externos Unired, Servipag, Banco Estado, Sencillio, WebPay y Presto red.", 
        "repo":"https://www.chilquinta.cl/",
        "reponame":"Chilquinta",
        "tecnologias":[
         {"name":"JavaEE"},
         {"name":"WebSphere"},
         {"name":"JSP"},
         {"name":"HTML5"},
         {"name":"CSS3"},
         {"name":"Javascript"},
         {"name":"JQuery"},
         {"name":"SCRUM"},
         {"name":"XPath"},
         {"name":"XQuery"},
         {"name":"SQL"},
         {"name":"GIT"},
         {"name":"XSL"},
         {"name":"XML"},
         {"name":"Dojo"},
         {"name":"IBM-Integration-Bus"},
         {"name":"Rational-Team-Contert"},
         {"name":"Web-Experience-Factory"},
         {"name":"IBM-WCM"},
         {"name":"WebServices"}
        ]}
      
    ],
    "links": [
      {"link": "https://gitlab.com/acepedam", "icon": "fa-gitlab"},  
      {"link": "https://www.facebook.com/alejandro.cepedamadariaga/", "icon": "fa-facebook-square"},
      {"link": "https://www.linkedin.com/in/alejandro-cepeda-32264682/", "icon": "fa-linkedin-square"}
    ]
  }
  